{
    "KPlugin": {
        "Authors": [
            {
                "Email": "mgraesslin@kde.org",
                "Name": "Martin Gräßlin",
                "Name[ar]": "Martin Gräßlin",
                "Name[az]": "Martin Gräßlin",
                "Name[bg]": "Martin Gräßlin",
                "Name[ca@valencia]": "Martin Gräßlin",
                "Name[ca]": "Martin Gräßlin",
                "Name[de]": "Martin Gräßlin",
                "Name[en_GB]": "Martin Gräßlin",
                "Name[es]": "Martin Gräßlin",
                "Name[eu]": "Martin Gräßlin",
                "Name[fi]": "Martin Gräßlin",
                "Name[fr]": "Martin Gräßlin",
                "Name[ia]": "Martin Gräßlin",
                "Name[id]": "Martin Gräßlin",
                "Name[is]": "Martin Gräßlin",
                "Name[it]": "Martin Gräßlin",
                "Name[ja]": "Martin Gräßlin",
                "Name[ka]": "მარტინ გრესსლინი",
                "Name[ko]": "Martin Gräßlin",
                "Name[nl]": "Martin Gräßlin",
                "Name[nn]": "Martin Gräßlin",
                "Name[pl]": "Martin Gräßlin",
                "Name[pt]": "Martin Gräßlin",
                "Name[pt_BR]": "Martin Gräßlin",
                "Name[ro]": "Martin Gräßlin",
                "Name[ru]": "Martin Gräßlin",
                "Name[sk]": "Martin Gräßlin",
                "Name[sl]": "Martin Gräßlin",
                "Name[sv]": "Martin Gräßlin",
                "Name[tr]": "Martin Gräßlin",
                "Name[uk]": "Martin Gräßlin",
                "Name[vi]": "Martin Gräßlin",
                "Name[x-test]": "xxMartin Gräßlinxx",
                "Name[zh_CN]": "Martin Gräßlin",
                "Name[zh_TW]": "Martin Gräßlin"
            }
        ],
        "Description": "An informative window switcher layout including desktop name",
        "Description[ar]": "مخطط مبدل نوافذ معلوماتي يشمل اسم سطح المكتب",
        "Description[az]": "İş masası adı daxil olmaqla məlumatlı pəncərə dəyişdirici maketi",
        "Description[bg]": "Информативно оформление на програмата за превключване на прозорци, включващо името на работния плот",
        "Description[ca@valencia]": "Una disposició del commutador de finestres informativa que inclou el nom d'escriptori",
        "Description[ca]": "Una disposició del commutador de finestres informativa que inclou el nom d'escriptori",
        "Description[de]": "Ein informatives Fensterwechsler-Layout, zeigt den Namen der Arbeitsfläche an",
        "Description[en_GB]": "An informative window switcher layout including desktop name",
        "Description[es]": "Un esquema de selección de ventanas informativo que incluye el nombre del escritorio",
        "Description[eu]": "Mahaigain-izena eransten duen leiho-trukatzaile antolamendu informatzaile bat",
        "Description[fi]": "Informatiivinen ikkunavaihtoasettelu, joka näyttää myös työpöytien nimet",
        "Description[fr]": "Une disposition informative du sélecteur de fenêtres incluant le nom des bureaux",
        "Description[ia]": "Un disposition de commutator de fenestra informative includente nomine de scriptorio",
        "Description[id]": "Sebuah tataletak pengalih jendela informatif termasuk nama desktop",
        "Description[it]": "Una disposizione informativa del selettore delle finestre che include il nome del desktop",
        "Description[ja]": "デスクトップの名前も表示する情報量が多いウィンドウスイッチャー",
        "Description[ko]": "바탕 화면 이름 정보를 보여 주는 창 전환기 레이아웃",
        "Description[nl]": "Een informatieve indeling van de vensterwisselaar inclusief de naam van het bureaublad",
        "Description[nn]": "Informativ vindaugsbytar som tek med skrivebordsnavnet",
        "Description[pl]": "Przełącznik okien z nazwą pulpitu",
        "Description[pt]": "Uma disposição de mudança de janelas informativa que inclui o nome do ecrã",
        "Description[pt_BR]": "Um layout do seletor de janelas que inclui o nome da área de trabalho",
        "Description[ro]": "Aranjament informativ pentru comutator de ferestre incluzând denumirea biroului",
        "Description[ru]": "Информативный переключатель окон, с названиями рабочих столов",
        "Description[sk]": "Informatívne rozloženie prepínača okien vrátane názvu plochy",
        "Description[sl]": "Razporeditev preklopa oken, ki vsebuje tudi ime namizja",
        "Description[sv]": "En informativ layout för fönsterbyte som inkluderar skrivbordsnamnet",
        "Description[tr]": "Masaüstü adını içeren bilgilendirici bir pencere değiştirici düzeni",
        "Description[uk]": "Інформативне компонування засобу перемикання вікон з назвами стільниць",
        "Description[vi]": "Bố cục mang nhiều thông tin cho trình chuyển cửa sổ, gồm cả tên bàn làm việc",
        "Description[x-test]": "xxAn informative window switcher layout including desktop namexx",
        "Description[zh_CN]": "显示包含桌面名称在内的详细信息的窗口切换器布局",
        "Icon": "preferences-system-windows-switcher-informative",
        "Id": "informative",
        "License": "GPL",
        "Name": "Informative",
        "Name[ar]": "معلوماتي",
        "Name[az]": "Məlumatlı",
        "Name[bg]": "Информативно",
        "Name[ca@valencia]": "Informatiu",
        "Name[ca]": "Informatiu",
        "Name[cs]": "Informativní",
        "Name[de]": "Informativ",
        "Name[en_GB]": "Informative",
        "Name[es]": "Informativo",
        "Name[eu]": "Informatzailea",
        "Name[fi]": "Informatiivinen",
        "Name[fr]": "Informatif",
        "Name[ia]": "Informative",
        "Name[id]": "Informatif",
        "Name[is]": "Upplýsandi",
        "Name[it]": "Informativo",
        "Name[ja]": "インフォマティブ",
        "Name[ko]": "정보성",
        "Name[nl]": "Informatief",
        "Name[nn]": "Informativ",
        "Name[pl]": "Informacyjny",
        "Name[pt]": "Informativo",
        "Name[pt_BR]": "Informativo",
        "Name[ro]": "Informativ",
        "Name[ru]": "Подробный",
        "Name[sk]": "Informatívne",
        "Name[sl]": "Informativno",
        "Name[sv]": "Informativ",
        "Name[tr]": "Bilgilendirici",
        "Name[uk]": "Інформативне",
        "Name[vi]": "Nhiều thông tin",
        "Name[x-test]": "xxInformativexx",
        "Name[zh_CN]": "详细信息",
        "Name[zh_TW]": "資訊提供",
        "ServiceTypes": [
            "KWin/WindowSwitcher"
        ],
        "Version": "1.0"
    },
    "X-Plasma-API": "declarativeappletscript",
    "X-Plasma-MainScript": "ui/main.qml"
}
